<define-tag pagetitle>DLA-1052-1 subversion</define-tag>
<define-tag report_date>2017-8-11</define-tag>
<define-tag secrefs>CVE-2017-9800</define-tag>
<define-tag packages>subversion</define-tag>
<define-tag isvulnerable>yes</define-tag>
<define-tag fixed>yes</define-tag>
<define-tag fixed-section>no</define-tag>

#use wml::debian::security

