<define-tag pagetitle>DLA-1056-1 cvs</define-tag>
<define-tag report_date>2017-8-13</define-tag>
<define-tag secrefs>CVE-2017-12836 Bug##871810</define-tag>
<define-tag packages>cvs</define-tag>
<define-tag isvulnerable>yes</define-tag>
<define-tag fixed>yes</define-tag>
<define-tag fixed-section>no</define-tag>

#use wml::debian::security

