<define-tag pagetitle>DLA-674-2 ghostscript</define-tag>
<define-tag report_date>2016-10-28</define-tag>
<define-tag secrefs>Bug#840691</define-tag>
<define-tag packages>ghostscript</define-tag>
<define-tag isvulnerable>yes</define-tag>
<define-tag fixed>yes</define-tag>
<define-tag fixed-section>no</define-tag>

#use wml::debian::security

